<svg xmlns="http://www.w3.org/2000/svg" xmlns:xlink="http://www.w3.org/1999/xlink" width="16" height="16" viewBox="0 0 16 16">
    <defs>
        <path id="blogs__a" d="M14.14 6.08c-.638 0-.851-.533-.851-1.067v-.746C13.289 1.973 11.163 0 8.771 0H4.093C1.807 0 0 1.867 0 4.267v7.466C0 14.133 1.807 16 4.093 16h7.07C13.927 16 16 14.08 16 11.52V8c-.053-1.387-.319-1.92-1.86-1.92zM8.505 4.8c0 .32-.213.533-.532.533H4.784c-.319 0-.532-.213-.532-.533 0-.32.213-.533.532-.533h3.19c.318 0 .531.213.531.533zm-3.72 5.867h5.846c.32 0 .532.213.532.533 0 .32-.213.533-.532.533H4.784c-.319 0-.532-.213-.532-.533 0-.32.213-.533.532-.533z"/>
    </defs>
    <g fill="none" fill-rule="evenodd">
        <mask id="blogs__b" fill="#fff">
            <use xlink:href="#blogs__a"/>
        </mask>
        <use fill="#000" fill-rule="nonzero" xlink:href="#blogs__a"/>
        <path fill="#FFF" d="M0 0H16V16H0z" mask="url(#blogs__b)"/>
    </g>
</svg>
