<svg xmlns="http://www.w3.org/2000/svg" xmlns:xlink="http://www.w3.org/1999/xlink" width="14" height="14" viewBox="0 0 14 14">
    <defs>
        <path id="ywrwl73yda" d="M11.098 5.615C10.708 3.636 8.97 2.15 6.882 2.15c-1.657 0-3.097.94-3.814 2.317C1.342 4.65 0 6.114 0 7.886c0 1.898 1.543 3.441 3.441 3.441h7.456c1.583 0 2.868-1.284 2.868-2.867 0-1.515-1.176-2.742-2.667-2.845zM8.029 7.312v2.295H5.735V7.313h-1.72l2.867-2.868L9.75 7.312H8.03z"/>
    </defs>
    <g fill="none" fill-rule="evenodd" transform="translate(.118 .118)">
        <mask id="1ik7v7u9xb" fill="#fff">
            <use xlink:href="#ywrwl73yda"/>
        </mask>
        <use fill="#000" fill-rule="nonzero" xlink:href="#ywrwl73yda"/>
        <path fill="#FFF" d="M0 0H13.765V13.765H0z" mask="url(#1ik7v7u9xb)"/>
    </g>
</svg>
