<svg xmlns="http://www.w3.org/2000/svg" xmlns:xlink="http://www.w3.org/1999/xlink" width="16" height="16" viewBox="0 0 16 16">
    <defs>
        <path id="v1fjldb25a" d="M8 0L6.585 1.415 12.17 7 0 7 0 9 12.17 9 6.585 14.585 8 16 16 8z"/>
    </defs>
    <g fill="none" fill-rule="evenodd">
        <mask id="7otooh9yob" fill="#fff">
            <use xlink:href="#v1fjldb25a"/>
        </mask>
        <use fill="#000" fill-rule="nonzero" xlink:href="#v1fjldb25a"/>
        <path fill="#FB3202" d="M0 0H16V16H0z" mask="url(#7otooh9yob)"/>
    </g>
</svg>
