<svg xmlns="http://www.w3.org/2000/svg" xmlns:xlink="http://www.w3.org/1999/xlink" width="62" height="62" viewBox="0 0 62 62">
    <defs>
        <path id="a2mb5dbuea" d="M15 15.417c2.067 0 3.75-1.675 3.75-3.75 0-2.067-1.683-3.75-3.75-3.75s-3.75 1.683-3.75 3.75c0 2.075 1.683 3.75 3.75 3.75zm7.5 6.666c0-2.5-5-3.75-7.5-3.75s-7.5 1.25-7.5 3.75v1.25h15v-1.25zM26.667 0H3.333C1.492 0 0 1.492 0 3.333v23.334C0 28.508 1.492 30 3.333 30h23.334C28.508 30 30 28.508 30 26.667V3.333C30 1.492 28.508 0 26.667 0zm0 26.667H3.333V3.333h23.334v23.334z"/>
    </defs>
    <g fill="none" fill-rule="evenodd">
        <circle cx="31" cy="31" r="30" stroke="#FB6C02" stroke-width="2"/>
        <g transform="translate(16 16)">
            <mask id="416748sfsb" fill="#fff">
                <use xlink:href="#a2mb5dbuea"/>
            </mask>
            <use fill="#000" fill-rule="nonzero" xlink:href="#a2mb5dbuea"/>
            <path fill="#FB6C02" d="M0 0H30V30H0z" mask="url(#416748sfsb)"/>
        </g>
    </g>
</svg>
